大一下/数字电路与逻辑系统/实验代码和实验报告/Code/QuartusPrime/experimen1.3_VotingDevice/simulation/qsim/VotingDevice.msim.vcd
$comment
	File created using the following command:
		vcd file VotingDevice.msim.vcd -direction
$end
$date
	Fri Jun 13 09:13:55 2025
$end
$version
	Questa Intel Starter FPGA Edition Version 2021.2
$end
$timescale
	1ps
$end

$scope module votingdevice_vhd_vec_tst $end
$var wire 1 ! result $end
$var wire 1 " vote [3] $end
$var wire 1 # vote [2] $end
$var wire 1 $ vote [1] $end
$var wire 1 % vote [0] $end

$scope module i1 $end
$var wire 1 & gnd $end
$var wire 1 ' vcc $end
$var wire 1 ( unknown $end
$var wire 1 ) devoe $end
$var wire 1 * devclrn $end
$var wire 1 + devpor $end
$var wire 1 , ww_devoe $end
$var wire 1 - ww_devclrn $end
$var wire 1 . ww_devpor $end
$var wire 1 / ww_vote [3] $end
$var wire 1 0 ww_vote [2] $end
$var wire 1 1 ww_vote [1] $end
$var wire 1 2 ww_vote [0] $end
$var wire 1 3 ww_result $end
$var wire 1 4 \~QUARTUS_CREATED_GND~I_combout\ $end
$var wire 1 5 \vote[0]~input_o\ $end
$var wire 1 6 \vote[2]~input_o\ $end
$var wire 1 7 \vote[3]~input_o\ $end
$var wire 1 8 \vote[1]~input_o\ $end
$var wire 1 9 \LessThan0~0_combout\ $end
$var wire 1 : \ALT_INV_vote[0]~input_o\ $end
$var wire 1 ; \ALT_INV_vote[3]~input_o\ $end
$var wire 1 < \ALT_INV_vote[2]~input_o\ $end
$var wire 1 = \ALT_INV_vote[1]~input_o\ $end
$upscope $end
$upscope $end
$enddefinitions $end
#0
$dumpvars
0!
0&
1'
x(
1)
1*
1+
1,
1-
1.
03
x4
05
06
07
08
09
1:
1;
1<
1=
0"
0#
0$
0%
0/
00
01
02
$end
#10000
1%
12
15
0:
#20000
0%
1$
02
11
18
05
0=
1:
#30000
1%
12
15
0:
#40000
0%
0$
1#
02
01
10
16
08
05
0<
1=
1:
#50000
1%
12
15
0:
#60000
0%
1$
02
11
18
05
0=
1:
#70000
1%
12
15
0:
19
13
1!
#80000
0%
0$
0#
1"
02
01
00
1/
17
06
08
05
0;
1<
1=
1:
09
03
0!
#90000
1%
12
15
0:
#100000
0%
1$
02
11
18
05
0=
1:
#110000
1%
12
15
0:
19
13
1!
#120000
0%
0$
1#
02
01
10
16
08
05
0<
1=
1:
09
03
0!
#130000
1%
12
15
0:
19
13
1!
#140000
0%
1$
02
11
18
05
0=
1:
#150000
1%
12
15
0:
#160000
0%
0$
0#
0"
02
01
00
0/
07
06
08
05
1;
1<
1=
1:
09
03
0!
#170000
1%
12
15
0:
#180000
0%
1$
02
11
18
05
0=
1:
#190000
1%
12
15
0:
#200000
0%
0$
1#
02
01
10
16
08
05
0<
1=
1:
#210000
1%
12
15
0:
#220000
0%
1$
02
11
18
05
0=
1:
#230000
1%
12
15
0:
19
13
1!
#240000
0%
0$
0#
1"
02
01
00
1/
17
06
08
05
0;
1<
1=
1:
09
03
0!
#250000
1%
12
15
0:
#260000
0%
1$
02
11
18
05
0=
1:
#270000
1%
12
15
0:
19
13
1!
#280000
0%
0$
1#
02
01
10
16
08
05
0<
1=
1:
09
03
0!
#290000
1%
12
15
0:
19
13
1!
#300000
0%
1$
02
11
18
05
0=
1:
#310000
1%
12
15
0:
#320000
0%
0$
0#
0"
02
01
00
0/
07
06
08
05
1;
1<
1=
1:
09
03
0!
#330000
1%
12
15
0:
#340000
0%
1$
02
11
18
05
0=
1:
#350000
1%
12
15
0:
#360000
0%
0$
1#
02
01
10
16
08
05
0<
1=
1:
#370000
1%
12
15
0:
#380000
0%
1$
02
11
18
05
0=
1:
#390000
1%
12
15
0:
19
13
1!
#400000
0%
0$
0#
1"
02
01
00
1/
17
06
08
05
0;
1<
1=
1:
09
03
0!
#410000
1%
12
15
0:
#420000
0%
1$
02
11
18
05
0=
1:
#430000
1%
12
15
0:
19
13
1!
#440000
0%
0$
1#
02
01
10
16
08
05
0<
1=
1:
09
03
0!
#450000
1%
12
15
0:
19
13
1!
#460000
0%
1$
02
11
18
05
0=
1:
#470000
1%
12
15
0:
#480000
0%
0$
0#
0"
02
01
00
0/
07
06
08
05
1;
1<
1=
1:
09
03
0!
#490000
1%
12
15
0:
#500000
0%
1$
02
11
18
05
0=
1:
#510000
1%
12
15
0:
#520000
0%
0$
1#
02
01
10
16
08
05
0<
1=
1:
#530000
1%
12
15
0:
#540000
0%
1$
02
11
18
05
0=
1:
#550000
1%
12
15
0:
19
13
1!
#560000
0%
0$
0#
1"
02
01
00
1/
17
06
08
05
0;
1<
1=
1:
09
03
0!
#570000
1%
12
15
0:
#580000
0%
1$
02
11
18
05
0=
1:
#590000
1%
12
15
0:
19
13
1!
#600000
0%
0$
1#
02
01
10
16
08
05
0<
1=
1:
09
03
0!
#610000
1%
12
15
0:
19
13
1!
#620000
0%
1$
02
11
18
05
0=
1:
#630000
1%
12
15
0:
#640000
0%
0$
0#
0"
02
01
00
0/
07
06
08
05
1;
1<
1=
1:
09
03
0!
#650000
1%
12
15
0:
#660000
0%
1$
02
11
18
05
0=
1:
#670000
1%
12
15
0:
#680000
0%
0$
1#
02
01
10
16
08
05
0<
1=
1:
#690000
1%
12
15
0:
#700000
0%
1$
02
11
18
05
0=
1:
#710000
1%
12
15
0:
19
13
1!
#720000
0%
0$
0#
1"
02
01
00
1/
17
06
08
05
0;
1<
1=
1:
09
03
0!
#730000
1%
12
15
0:
#740000
0%
1$
02
11
18
05
0=
1:
#750000
1%
12
15
0:
19
13
1!
#760000
0%
0$
1#
02
01
10
16
08
05
0<
1=
1:
09
03
0!
#770000
1%
12
15
0:
19
13
1!
#780000
0%
1$
02
11
18
05
0=
1:
#790000
1%
12
15
0:
#800000
0%
0$
0#
0"
02
01
00
0/
07
06
08
05
1;
1<
1=
1:
09
03
0!
#810000
1%
12
15
0:
#820000
0%
1$
02
11
18
05
0=
1:
#830000
1%
12
15
0:
#840000
0%
0$
1#
02
01
10
16
08
05
0<
1=
1:
#850000
1%
12
15
0:
#860000
0%
1$
02
11
18
05
0=
1:
#870000
1%
12
15
0:
19
13
1!
#880000
0%
0$
0#
1"
02
01
00
1/
17
06
08
05
0;
1<
1=
1:
09
03
0!
#890000
1%
12
15
0:
#900000
0%
1$
02
11
18
05
0=
1:
#910000
1%
12
15
0:
19
13
1!
#920000
0%
0$
1#
02
01
10
16
08
05
0<
1=
1:
09
03
0!
#930000
1%
12
15
0:
19
13
1!
#940000
0%
1$
02
11
18
05
0=
1:
#950000
1%
12
15
0:
#960000
0%
0$
0#
0"
02
01
00
0/
07
06
08
05
1;
1<
1=
1:
09
03
0!
#970000
1%
12
15
0:
#980000
0%
1$
02
11
18
05
0=
1:
#990000
1%
12
15
0:
