大一下/数字电路与逻辑系统/实验代码和实验报告/Code/QuartusPrime/experiment2.1_StringDetector/simulation/qsim/Detector.msim.vcd
$comment
	File created using the following command:
		vcd file Detector.msim.vcd -direction
$end
$date
	Fri Jun 13 09:18:28 2025
$end
$version
	Questa Intel Starter FPGA Edition Version 2021.2
$end
$timescale
	1ps
$end

$scope module detector_vhd_vec_tst $end
$var wire 1 ! clk $end
$var wire 1 " cout $end
$var wire 1 # data $end
$var wire 1 $ reset $end

$scope module i1 $end
$var wire 1 % gnd $end
$var wire 1 & vcc $end
$var wire 1 ' unknown $end
$var wire 1 ( devoe $end
$var wire 1 ) devclrn $end
$var wire 1 * devpor $end
$var wire 1 + ww_devoe $end
$var wire 1 , ww_devclrn $end
$var wire 1 - ww_devpor $end
$var wire 1 . ww_clk $end
$var wire 1 / ww_reset $end
$var wire 1 0 ww_data $end
$var wire 1 1 ww_cout $end
$var wire 1 2 \~QUARTUS_CREATED_GND~I_combout\ $end
$var wire 1 3 \clk~input_o\ $end
$var wire 1 4 \clk~inputCLKENA0_outclk\ $end
$var wire 1 5 \data~input_o\ $end
$var wire 1 6 \Selector0~0_combout\ $end
$var wire 1 7 \reset~input_o\ $end
$var wire 1 8 \current_state.s0~q\ $end
$var wire 1 9 \next_state.s1~0_combout\ $end
$var wire 1 : \current_state.s1~q\ $end
$var wire 1 ; \next_state.s2~0_combout\ $end
$var wire 1 < \current_state.s2~q\ $end
$var wire 1 = \next_state.s3~0_combout\ $end
$var wire 1 > \current_state.s3~q\ $end
$var wire 1 ? \next_state.s4~0_combout\ $end
$var wire 1 @ \current_state.s4~q\ $end
$var wire 1 A \next_state.s5~0_combout\ $end
$var wire 1 B \current_state.s5~q\ $end
$var wire 1 C \next_state.s6~0_combout\ $end
$var wire 1 D \current_state.s6~q\ $end
$var wire 1 E \next_state.s7~0_combout\ $end
$var wire 1 F \current_state.s7~q\ $end
$var wire 1 G \ALT_INV_current_state.s4~q\ $end
$var wire 1 H \ALT_INV_current_state.s2~q\ $end
$var wire 1 I \ALT_INV_reset~input_o\ $end
$var wire 1 J \ALT_INV_current_state.s7~q\ $end
$var wire 1 K \ALT_INV_current_state.s5~q\ $end
$var wire 1 L \ALT_INV_current_state.s0~q\ $end
$var wire 1 M \ALT_INV_current_state.s1~q\ $end
$var wire 1 N \ALT_INV_current_state.s6~q\ $end
$var wire 1 O \ALT_INV_current_state.s3~q\ $end
$var wire 1 P \ALT_INV_data~input_o\ $end
$upscope $end
$upscope $end
$enddefinitions $end
#0
$dumpvars
0!
0"
0#
0$
0%
1&
x'
1(
1)
1*
1+
1,
1-
0.
0/
00
01
x2
03
04
05
06
07
08
09
0:
0;
0<
0=
0>
0?
0@
0A
0B
0C
0D
0E
0F
1G
1H
1I
1J
1K
1L
1M
1N
1O
1P
$end
#5000
1!
1.
13
14
#10000
0!
0.
03
04
#15000
1!
1.
13
14
#20000
0!
1#
0.
10
15
03
04
0P
16
19
#25000
1!
1.
13
14
18
1:
0L
0M
1;
09
#30000
0!
0#
0.
00
05
03
04
1P
06
0;
#35000
1!
1.
13
14
08
0:
1L
1M
#40000
0!
0.
03
04
#45000
1!
1.
13
14
#50000
0!
1#
0.
10
15
03
04
0P
16
19
#55000
1!
1.
13
14
18
1:
0L
0M
1;
09
#60000
0!
0.
03
04
#65000
1!
1.
13
14
0:
1<
1M
0H
1=
0;
#70000
0!
0.
03
04
#75000
1!
1.
13
14
0<
1>
1H
0O
#80000
0!
0.
03
04
#85000
1!
1.
13
14
#90000
0!
0#
0.
00
05
03
04
1P
0=
1?
#95000
1!
1.
13
14
0>
1@
1O
0G
1A
0?
#100000
0!
0.
03
04
#105000
1!
1.
13
14
0@
1B
1G
0K
06
0A
#110000
0!
0.
03
04
#115000
1!
1.
13
14
08
0B
1L
1K
#120000
0!
0.
03
04
#125000
1!
1.
13
14
#130000
0!
1#
0.
10
15
03
04
0P
16
19
#135000
1!
1.
13
14
18
1:
0L
0M
1;
09
#140000
0!
0#
0.
00
05
03
04
1P
06
0;
#145000
1!
1.
13
14
08
0:
1L
1M
#150000
0!
1#
0.
10
15
03
04
0P
16
19
#155000
1!
1.
13
14
18
1:
0L
0M
1;
09
#160000
0!
0#
0.
00
05
03
04
1P
06
0;
#165000
1!
1.
13
14
08
0:
1L
1M
#170000
0!
0.
03
04
#175000
1!
1.
13
14
#180000
0!
1#
0.
10
15
03
04
0P
16
19
#185000
1!
1.
13
14
18
1:
0L
0M
1;
09
#190000
0!
0.
03
04
#195000
1!
1.
13
14
0:
1<
1M
0H
1=
0;
#200000
0!
0.
03
04
#205000
1!
1.
13
14
0<
1>
1H
0O
#210000
0!
0.
03
04
#215000
1!
1.
13
14
#220000
0!
0.
03
04
#225000
1!
1.
13
14
#230000
0!
0.
03
04
#235000
1!
1.
13
14
#240000
0!
0#
0.
00
05
03
04
1P
0=
1?
#245000
1!
1.
13
14
0>
1@
1O
0G
1A
0?
#250000
0!
0.
03
04
#255000
1!
1.
13
14
0@
1B
1G
0K
06
0A
#260000
0!
1#
0.
10
15
03
04
0P
16
1C
#265000
1!
1.
13
14
0B
1D
1K
0N
1;
0C
#270000
0!
0#
0.
00
05
03
04
1P
0;
1E
#275000
1!
1.
13
14
0D
1F
1N
0J
06
0E
11
1"
#280000
0!
0.
03
04
#285000
1!
1.
13
14
08
0F
1L
1J
01
0"
#290000
0!
1#
0.
10
15
03
04
0P
16
19
#295000
1!
1.
13
14
18
1:
0L
0M
1;
09
#300000
0!
0#
0.
00
05
03
04
1P
06
0;
#305000
1!
1.
13
14
08
0:
1L
1M
#310000
0!
1#
0.
10
15
03
04
0P
16
19
#315000
1!
1.
13
14
18
1:
0L
0M
1;
09
#320000
0!
0#
0.
00
05
03
04
1P
06
0;
#325000
1!
1.
13
14
08
0:
1L
1M
#330000
0!
0.
03
04
#335000
1!
1.
13
14
#340000
0!
1#
0.
10
15
03
04
0P
16
19
#345000
1!
1.
13
14
18
1:
0L
0M
1;
09
#350000
0!
0.
03
04
#355000
1!
1.
13
14
0:
1<
1M
0H
1=
0;
#360000
0!
0.
03
04
#365000
1!
1.
13
14
0<
1>
1H
0O
#370000
0!
0#
1$
0.
00
1/
17
05
03
04
0I
1P
0=
1?
08
0>
1L
1O
06
0?
#375000
1!
1.
13
14
#380000
0!
0.
03
04
#385000
1!
1.
13
14
#390000
0!
1#
0$
0.
10
0/
07
15
03
04
1I
0P
16
19
#395000
1!
1.
13
14
18
1:
0L
0M
1;
09
#400000
0!
0#
0.
00
05
03
04
1P
06
0;
#405000
1!
1.
13
14
08
0:
1L
1M
#410000
0!
0.
03
04
#415000
1!
1.
13
14
#420000
0!
1#
0.
10
15
03
04
0P
16
19
#425000
1!
1.
13
14
18
1:
0L
0M
1;
09
#430000
0!
0.
03
04
#435000
1!
1.
13
14
0:
1<
1M
0H
1=
0;
#440000
0!
0#
0.
00
05
03
04
1P
06
0=
#445000
1!
1.
13
14
08
0<
1L
1H
#450000
0!
1#
0.
10
15
03
04
0P
16
19
#455000
1!
1.
13
14
18
1:
0L
0M
1;
09
#460000
0!
0#
0.
00
05
03
04
1P
06
0;
#465000
1!
1.
13
14
08
0:
1L
1M
#470000
0!
0.
03
04
#475000
1!
1.
13
14
#480000
0!
1#
0.
10
15
03
04
0P
16
19
#485000
1!
1.
13
14
18
1:
0L
0M
1;
09
#490000
0!
0#
0.
00
05
03
04
1P
06
0;
#495000
1!
1.
13
14
08
0:
1L
1M
#500000
0!
0.
03
04
#505000
1!
1.
13
14
#510000
0!
1#
0.
10
15
03
04
0P
16
19
#515000
1!
1.
13
14
18
1:
0L
0M
1;
09
#520000
0!
0.
03
04
#525000
1!
1.
13
14
0:
1<
1M
0H
1=
0;
#530000
0!
0.
03
04
#535000
1!
1.
13
14
0<
1>
1H
0O
#540000
0!
0#
0.
00
05
03
04
1P
0=
1?
#545000
1!
1.
13
14
0>
1@
1O
0G
1A
0?
#550000
0!
0.
03
04
#555000
1!
1.
13
14
0@
1B
1G
0K
06
0A
#560000
0!
1$
0.
1/
17
03
04
0I
08
0B
1L
1K
#565000
1!
1.
13
14
#570000
0!
1#
0.
10
15
03
04
0P
16
19
#575000
1!
1.
13
14
#580000
0!
0#
0.
00
05
03
04
1P
06
09
#585000
1!
1.
13
14
#590000
0!
1#
0$
0.
10
0/
07
15
03
04
1I
0P
16
19
#595000
1!
1.
13
14
18
1:
0L
0M
1;
09
#600000
0!
0.
03
04
#605000
1!
1.
13
14
0:
1<
1M
0H
1=
0;
#610000
0!
0#
0.
00
05
03
04
1P
06
0=
#615000
1!
1.
13
14
08
0<
1L
1H
#620000
0!
0.
03
04
#625000
1!
1.
13
14
#630000
0!
0.
03
04
#635000
1!
1.
13
14
#640000
0!
1#
0.
10
15
03
04
0P
16
19
#645000
1!
1.
13
14
18
1:
0L
0M
1;
09
#650000
0!
0#
0.
00
05
03
04
1P
06
0;
#655000
1!
1.
13
14
08
0:
1L
1M
#660000
0!
0.
03
04
#665000
1!
1.
13
14
#670000
0!
1#
0.
10
15
03
04
0P
16
19
#675000
1!
1.
13
14
18
1:
0L
0M
1;
09
#680000
0!
0.
03
04
#685000
1!
1.
13
14
0:
1<
1M
0H
1=
0;
#690000
0!
0.
03
04
#695000
1!
1.
13
14
0<
1>
1H
0O
#700000
0!
0.
03
04
#705000
1!
1.
13
14
#710000
0!
0#
0.
00
05
03
04
1P
0=
1?
#715000
1!
1.
13
14
0>
1@
1O
0G
1A
0?
#720000
0!
0.
03
04
#725000
1!
1.
13
14
0@
1B
1G
0K
06
0A
#730000
0!
0.
03
04
#735000
1!
1.
13
14
08
0B
1L
1K
#740000
0!
1#
0.
10
15
03
04
0P
16
19
#745000
1!
1.
13
14
18
1:
0L
0M
1;
09
#750000
0!
0.
03
04
#755000
1!
1.
13
14
0:
1<
1M
0H
1=
0;
#760000
0!
0.
03
04
#765000
1!
1.
13
14
0<
1>
1H
0O
#770000
0!
0.
03
04
#775000
1!
1.
13
14
#780000
0!
0.
03
04
#785000
1!
1.
13
14
#790000
0!
0.
03
04
#795000
1!
1.
13
14
#800000
0!
0.
03
04
#805000
1!
1.
13
14
#810000
0!
0#
0.
00
05
03
04
1P
0=
1?
#815000
1!
1.
13
14
0>
1@
1O
0G
1A
0?
#820000
0!
0.
03
04
#825000
1!
1.
13
14
0@
1B
1G
0K
06
0A
#830000
0!
1#
0.
10
15
03
04
0P
16
1C
#835000
1!
1.
13
14
0B
1D
1K
0N
1;
0C
#840000
0!
0#
0.
00
05
03
04
1P
0;
1E
#845000
1!
1.
13
14
0D
1F
1N
0J
06
0E
11
1"
#850000
0!
1#
0.
10
15
03
04
0P
16
19
#855000
1!
1.
13
14
1:
0F
0M
1J
09
1;
01
0"
#860000
0!
0.
03
04
#865000
1!
1.
13
14
0:
1<
1M
0H
1=
0;
#870000
0!
0#
0.
00
05
03
04
1P
06
0=
#875000
1!
1.
13
14
08
0<
1L
1H
#880000
0!
1#
0.
10
15
03
04
0P
16
19
#885000
1!
1.
13
14
18
1:
0L
0M
1;
09
#890000
0!
0#
0.
00
05
03
04
1P
06
0;
#895000
1!
1.
13
14
08
0:
1L
1M
#900000
0!
1#
0.
10
15
03
04
0P
16
19
#905000
1!
1.
13
14
18
1:
0L
0M
1;
09
#910000
0!
0#
0.
00
05
03
04
1P
06
0;
#915000
1!
1.
13
14
08
0:
1L
1M
#920000
0!
0.
03
04
#925000
1!
1.
13
14
#930000
0!
0.
03
04
#935000
1!
1.
13
14
#940000
0!
1#
0.
10
15
03
04
0P
16
19
#945000
1!
1.
13
14
18
1:
0L
0M
1;
09
#950000
0!
0.
03
04
#955000
1!
1.
13
14
0:
1<
1M
0H
1=
0;
#960000
0!
0#
0.
00
05
03
04
1P
06
0=
#965000
1!
1.
13
14
08
0<
1L
1H
#970000
0!
1#
0.
10
15
03
04
0P
16
19
#975000
1!
1.
13
14
18
1:
0L
0M
1;
09
#980000
0!
0.
03
04
#985000
1!
1.
13
14
0:
1<
1M
0H
1=
0;
#990000
0!
0#
0.
00
05
03
04
1P
06
0=
#995000
1!
1.
13
14
08
0<
1L
1H
