大一下/数字电路与逻辑系统/实验代码和实验报告/Code/QuartusPrime/experiment2.3_Register74374/simulation/qsim/Register74374.msim.vcd
$comment
	File created using the following command:
		vcd file Register74374.msim.vcd -direction
$end
$date
	Fri Jun 13 10:37:02 2025
$end
$version
	Questa Intel Starter FPGA Edition Version 2021.2
$end
$timescale
	1ps
$end

$scope module register74374_vhd_vec_tst $end
$var wire 1 ! CLK $end
$var wire 1 " D [7] $end
$var wire 1 # D [6] $end
$var wire 1 $ D [5] $end
$var wire 1 % D [4] $end
$var wire 1 & D [3] $end
$var wire 1 ' D [2] $end
$var wire 1 ( D [1] $end
$var wire 1 ) D [0] $end
$var wire 1 * OE $end
$var wire 1 + Q [7] $end
$var wire 1 , Q [6] $end
$var wire 1 - Q [5] $end
$var wire 1 . Q [4] $end
$var wire 1 / Q [3] $end
$var wire 1 0 Q [2] $end
$var wire 1 1 Q [1] $end
$var wire 1 2 Q [0] $end

$scope module i1 $end
$var wire 1 3 gnd $end
$var wire 1 4 vcc $end
$var wire 1 5 unknown $end
$var wire 1 6 devoe $end
$var wire 1 7 devclrn $end
$var wire 1 8 devpor $end
$var wire 1 9 ww_devoe $end
$var wire 1 : ww_devclrn $end
$var wire 1 ; ww_devpor $end
$var wire 1 < ww_D [7] $end
$var wire 1 = ww_D [6] $end
$var wire 1 > ww_D [5] $end
$var wire 1 ? ww_D [4] $end
$var wire 1 @ ww_D [3] $end
$var wire 1 A ww_D [2] $end
$var wire 1 B ww_D [1] $end
$var wire 1 C ww_D [0] $end
$var wire 1 D ww_CLK $end
$var wire 1 E ww_OE $end
$var wire 1 F ww_Q [7] $end
$var wire 1 G ww_Q [6] $end
$var wire 1 H ww_Q [5] $end
$var wire 1 I ww_Q [4] $end
$var wire 1 J ww_Q [3] $end
$var wire 1 K ww_Q [2] $end
$var wire 1 L ww_Q [1] $end
$var wire 1 M ww_Q [0] $end
$var wire 1 N \~QUARTUS_CREATED_GND~I_combout\ $end
$var wire 1 O \CLK~input_o\ $end
$var wire 1 P \CLK~inputCLKENA0_outclk\ $end
$var wire 1 Q \D[0]~input_o\ $end
$var wire 1 R \OE~input_o\ $end
$var wire 1 S \D[1]~input_o\ $end
$var wire 1 T \temp[1]~feeder_combout\ $end
$var wire 1 U \D[2]~input_o\ $end
$var wire 1 V \temp[2]~feeder_combout\ $end
$var wire 1 W \D[3]~input_o\ $end
$var wire 1 X \temp[3]~feeder_combout\ $end
$var wire 1 Y \D[4]~input_o\ $end
$var wire 1 Z \temp[4]~feeder_combout\ $end
$var wire 1 [ \D[5]~input_o\ $end
$var wire 1 \ \D[6]~input_o\ $end
$var wire 1 ] \temp[6]~feeder_combout\ $end
$var wire 1 ^ \D[7]~input_o\ $end
$var wire 1 _ \temp[7]~feeder_combout\ $end
$var wire 1 ` temp [7] $end
$var wire 1 a temp [6] $end
$var wire 1 b temp [5] $end
$var wire 1 c temp [4] $end
$var wire 1 d temp [3] $end
$var wire 1 e temp [2] $end
$var wire 1 f temp [1] $end
$var wire 1 g temp [0] $end
$var wire 1 h \ALT_INV_D[6]~input_o\ $end
$var wire 1 i \ALT_INV_D[3]~input_o\ $end
$var wire 1 j \ALT_INV_D[7]~input_o\ $end
$var wire 1 k \ALT_INV_OE~input_o\ $end
$var wire 1 l \ALT_INV_D[4]~input_o\ $end
$var wire 1 m \ALT_INV_D[2]~input_o\ $end
$var wire 1 n \ALT_INV_D[1]~input_o\ $end
$upscope $end
$upscope $end
$enddefinitions $end
#0
$dumpvars
0!
0*
03
14
x5
16
17
18
19
1:
1;
0D
0E
xN
0O
0P
0Q
0R
0S
0T
1U
1V
0W
0X
0Y
0Z
1[
0\
0]
0^
0_
1h
1i
1j
1k
1l
0m
1n
0"
0#
1$
0%
0&
1'
0(
0)
0<
0=
1>
0?
0@
1A
0B
0C
0F
0G
0H
0I
0J
0K
0L
0M
0`
0a
0b
0c
0d
0e
0f
0g
0+
0,
0-
0.
0/
00
01
02
$end
#5000
1"
1#
0$
1%
1(
1B
1?
0>
1=
1<
1^
1\
0[
1Y
1S
0j
0h
0l
0n
1T
1Z
1]
1_
#10000
0#
0(
1!
0'
1)
1C
0B
0A
0=
1D
1O
0\
0U
0S
1Q
1P
1h
1m
1n
1f
1e
1c
1a
1`
0T
0V
0]
1F
1G
1I
1K
1L
11
10
1.
1,
1+
#15000
1#
1&
1@
1=
1\
1W
0h
0i
1X
1]
#20000
0#
0&
1(
0!
1'
0)
0%
0C
1B
1A
0@
0?
0=
0D
0O
0\
0Y
0W
1U
1S
0Q
0P
1h
1l
1i
0m
0n
1T
1V
0X
0Z
0]
#25000
1&
1@
1W
0i
1X
#30000
1#
0(
1!
0'
1)
1$
1C
0B
0A
1>
1=
1D
1O
1\
1[
0U
0S
1Q
1P
0h
1m
1n
1d
0c
0a
0T
0V
1]
0G
0I
1J
1/
0.
0,
#35000
0#
1(
1B
0=
0\
1S
1h
0n
1T
0]
#40000
1#
0!
0"
1=
0<
0D
0O
0^
1\
0P
1j
0h
1]
0_
#45000
0$
1%
1?
0>
0[
1Y
0l
1Z
#50000
0%
0#
1!
0(
1*
0B
0?
0=
1D
1E
1R
1O
0\
0Y
0S
1P
0k
1h
1l
1n
1g
0e
1c
1a
0`
0T
0Z
0]
zM
zL
zK
zJ
zI
zH
zG
zF
z2
z1
z0
z/
z.
z-
z,
z+
#55000
1%
1$
1'
0)
0&
0C
1A
0@
1?
1>
1[
1Y
0W
1U
0Q
0l
1i
0m
1V
0X
1Z
#60000
0$
1&
1#
0!
1"
1@
0>
1=
1<
0D
0O
1^
1\
0[
1W
0P
0j
0h
0i
1X
1]
1_
#65000
0&
0#
0'
0A
0@
0=
0\
0W
0U
1h
1i
1m
0V
0X
0]
#70000
1!
0%
1(
1D
1B
0?
0Y
1S
1O
1P
1l
0n
1T
0Z
#75000
1&
1#
1@
1=
1\
1W
0h
0i
1X
1]
#80000
0!
1%
0(
0"
1)
0D
1C
0B
1?
0<
0^
1Y
0S
1Q
0O
0P
1j
0l
1n
0T
1Z
0_
#85000
0%
0)
0#
1'
0C
1A
0?
0=
0\
0Y
1U
0Q
1h
1l
0m
1V
0Z
0]
#90000
1%
1#
1!
1"
0&
0@
1?
1=
1<
1D
1O
1^
1\
1Y
0W
1P
0j
0h
0l
1i
0X
1Z
1]
1_
#95000
0%
0"
0'
1(
1B
0A
0?
0<
0^
0Y
0U
1S
1j
1l
1m
0n
1T
0V
0Z
0_
#100000
1%
0(
0#
0!
1&
1)
0*
1C
0B
1@
1?
0=
0D
0E
0R
0O
0\
1Y
1W
0S
1Q
0P
1k
1h
0l
0i
1n
0T
1X
1Z
0]
1M
1L
0K
1J
1I
0H
1G
0F
12
11
00
1/
1.
0-
1,
0+
#105000
0)
1"
0C
1<
1^
0Q
0j
1_
#110000
0"
1(
1!
0&
1B
0@
0<
1D
1O
0^
0W
1S
1P
1j
1i
0n
0g
0f
0a
1`
1T
0X
0_
1F
0G
0L
0M
02
01
0,
1+
#115000
1"
0(
1)
1C
0B
1<
1^
0S
1Q
0j
1n
0T
1_
#120000
0"
1(
0)
0!
0%
1'
0C
1B
1A
0?
0<
0D
0O
0^
0Y
1U
1S
0Q
0P
1j
1l
0m
0n
1T
1V
0Z
0_
#125000
0(
1)
1#
1C
0B
1=
1\
0S
1Q
0h
1n
0T
1]
#130000
1(
0)
0#
1!
0'
1&
1$
0C
1B
0A
1@
1>
0=
1D
1O
0\
1[
1W
0U
1S
0Q
1P
1h
0i
1m
0n
1g
1e
0d
0c
1a
0`
1T
0V
1X
0]
0F
1G
0I
0J
1K
1M
12
10
0/
0.
1,
0+
#135000
1)
1'
0$
1"
1%
1C
1A
1?
0>
1<
1^
0[
1Y
1U
1Q
0j
0l
0m
1V
1Z
1_
#140000
1$
0"
0(
1#
0!
0B
1>
1=
0<
0D
0O
0^
1\
1[
0S
0P
1j
0h
1n
0T
1]
0_
#145000
1"
1(
0#
0)
0'
0%
0&
0C
1B
0A
0@
0?
0=
1<
1^
0\
0Y
0W
0U
1S
0Q
0j
1h
1l
1i
1m
0n
1T
0V
0X
0Z
0]
1_
#150000
1#
1)
1'
0$
1!
1*
1C
1A
0>
1=
1D
1E
1R
1O
1\
0[
1U
1Q
1P
0k
0h
0m
0g
1f
0e
1b
0a
1`
1V
1]
zM
zL
zK
zJ
zI
zH
zG
zF
z2
z1
z0
z/
z.
z-
z,
z+
#155000
0)
0'
1$
0"
1%
1&
0C
0A
1@
1?
1>
0<
0^
1[
1Y
1W
0U
0Q
1j
0l
0i
1m
0V
1X
1Z
0_
#160000
1)
1'
0$
0%
0#
0!
0(
1C
0B
1A
0?
0>
0=
0D
0O
0\
0[
0Y
1U
0S
1Q
0P
1h
1l
0m
1n
0T
1V
0Z
0]
#165000
0)
1$
1(
1"
0&
0C
1B
0@
1>
1<
1^
1[
0W
1S
0Q
0j
1i
0n
1T
0X
1_
#170000
0$
0(
0"
1&
1#
1!
0B
1@
0>
1=
0<
1D
1O
0^
1\
0[
1W
0S
1P
1j
0h
0i
1n
0T
1X
1]
0_
#175000
1(
1"
0&
0'
1B
0A
0@
1<
1^
0W
0U
1S
0j
1i
1m
0n
1T
0V
0X
1_
#180000
0(
1&
0#
0!
1)
1%
1C
0B
1@
1?
0=
0D
0O
0\
1Y
1W
0S
1Q
0P
1h
0l
0i
1n
0T
1X
1Z
0]
#185000
1(
0&
1#
0)
1'
0C
1B
1A
0@
1=
1\
0W
1U
1S
0Q
0h
1i
0m
0n
1T
1V
0X
1]
#190000
1)
0'
1!
1C
0A
1D
1O
0U
1Q
1P
1m
0V
#195000
0(
0B
0S
1n
0T
#200000
1(
0)
1'
0!
1&
0%
0"
0*
0C
1B
1A
1@
0?
0<
0D
0E
0R
0O
0^
0Y
1W
1U
1S
0Q
0P
1k
1j
1l
0i
0m
0n
1T
1V
1X
0Z
0_
0M
1L
0K
0J
0I
1H
0G
1F
02
11
00
0/
0.
1-
0,
1+
#205000
0(
0'
1"
0B
0A
1<
1^
0U
0S
0j
1m
1n
0T
0V
1_
#210000
1(
1!
0&
1%
0#
1$
1B
0@
1?
1>
0=
1D
1O
0\
1[
1Y
0W
1S
1P
1h
0l
1i
0n
0f
1d
0b
1a
1T
0X
1Z
0]
1G
0H
1J
0L
01
1/
0-
1,
#215000
0(
0%
1'
0"
0B
1A
0?
0<
0^
0Y
1U
0S
1j
1l
0m
1n
0T
1V
0Z
0_
#220000
1(
0'
1"
0!
1#
0$
1B
0A
0>
1=
1<
0D
0O
1^
1\
0[
0U
1S
0P
0j
0h
1m
0n
1T
0V
1]
1_
#225000
0(
1'
0#
1$
1%
0B
1A
1?
1>
0=
0\
1[
1Y
1U
0S
1h
0l
0m
1n
0T
1V
1Z
0]
#230000
1(
1#
0"
1!
1B
1=
0<
1D
1O
0^
1\
1S
1P
1j
0h
0n
1e
0d
1c
1b
0a
1T
1]
0_
0G
1H
1I
0J
1K
10
0/
1.
1-
0,
#235000
0(
0#
1"
0'
0$
1&
0B
0A
1@
0>
0=
1<
1^
0\
0[
1W
0U
0S
0j
1h
0i
1m
1n
0T
0V
1X
0]
1_
#240000
1(
0&
0!
0%
1)
1C
1B
0@
0?
0D
0O
0Y
0W
1S
1Q
0P
1l
1i
0n
1T
0X
0Z
#245000
0(
1%
1#
0B
1?
1=
1\
1Y
0S
0h
0l
1n
0T
1Z
1]
#250000
1(
1&
1!
0)
1$
1*
0C
1B
1@
1>
1D
1E
1R
1O
1[
1W
1S
0Q
1P
0k
0i
0n
1g
0e
0b
1a
1T
1X
zM
zL
zK
zJ
zI
zH
zG
zF
z2
z1
z0
z/
z.
z-
z,
z+
#255000
0(
0&
1)
0$
0%
0#
1C
0B
0@
0?
0>
0=
0\
0[
0Y
0W
0S
1Q
1h
1l
1i
1n
0T
0X
0Z
0]
#260000
1(
1$
1#
0!
0"
1B
1>
1=
0<
0D
0O
0^
1\
1[
1S
0P
1j
0h
0n
1T
1]
0_
#265000
0$
1&
0)
1'
0C
1A
1@
0>
0[
1W
1U
0Q
0i
0m
1V
1X
#270000
1$
0&
0'
1!
1%
0A
0@
1?
1>
1D
1O
1[
1Y
0W
0U
1P
0l
1i
1m
0V
0X
1Z
#275000
0$
0%
1)
0#
1"
1C
0?
0>
0=
1<
1^
0\
0[
0Y
1Q
0j
1h
1l
0Z
0]
1_
#280000
0!
0D
0O
0P
#285000
1%
1'
1A
1?
1Y
1U
0l
0m
1V
1Z
#290000
0%
1!
0)
0"
1&
0(
0C
0B
1@
0?
0<
1D
1O
0^
0Y
1W
0S
0Q
1P
1j
1l
0i
1n
0T
1X
0Z
0_
#295000
1)
1(
1#
1C
1B
1=
1\
1S
1Q
0h
0n
1T
1]
#300000
0(
1%
0!
1"
0&
1$
0*
0B
0@
1?
1>
1<
0D
0E
0R
0O
1^
1[
1Y
0W
0S
0P
1k
0j
0l
1i
1n
0T
0X
1Z
1_
1M
0L
0K
0J
1I
0H
1G
1F
12
01
00
0/
1.
0-
1,
1+
#305000
0"
0$
0)
0'
0C
0A
0>
0<
0^
0[
0U
0Q
1j
1m
0V
0_
#310000
1)
1'
1!
0#
1C
1A
0=
1D
1O
0\
1U
1Q
1P
1h
0m
0g
0`
1V
0]
0F
0M
02
0+
#315000
0)
1#
1$
1(
1&
0C
1B
1@
1>
1=
1\
1[
1W
1S
0Q
0h
0i
0n
1T
1X
1]
#320000
0(
0!
1"
0B
1<
0D
0O
1^
0S
0P
0j
1n
0T
1_
#325000
1(
0"
0'
1B
0A
0<
0^
0U
1S
1j
1m
0n
1T
0V
0_
#330000
0(
1'
1!
1)
0&
0%
1C
0B
1A
0@
0?
1D
1O
0Y
0W
1U
0S
1Q
1P
1l
1i
0m
1n
1f
1d
1b
0T
1V
0X
0Z
1H
1J
1L
11
1/
1-
#335000
1(
0'
0)
1&
1%
1"
0#
0C
1B
0A
1@
1?
0=
1<
1^
0\
1Y
1W
0U
1S
0Q
0j
1h
0l
0i
1m
0n
1T
0V
1X
1Z
0]
1_
#340000
1'
0&
0"
1#
0!
1A
0@
1=
0<
0D
0O
0^
1\
0W
1U
0P
1j
0h
1i
0m
1V
0X
1]
0_
#345000
0'
1&
1"
0(
0B
0A
1@
1<
1^
1W
0U
0S
0j
0i
1m
1n
0T
0V
1X
1_
#350000
1'
0#
1!
1)
1*
1C
1A
0=
1D
1E
1R
1O
0\
1U
1Q
1P
0k
1h
0m
0f
1`
1V
0]
zM
zL
zK
zJ
zI
zH
zG
zF
z2
z1
z0
z/
z.
z-
z,
z+
#355000
0'
1#
0)
0"
1(
0%
0$
0C
1B
0A
0?
0>
1=
0<
0^
1\
0[
0Y
0U
1S
0Q
1j
0h
1l
1m
0n
1T
0V
0Z
1]
0_
#360000
1'
1)
0(
0!
0&
1C
0B
1A
0@
0D
0O
0W
1U
0S
1Q
0P
1i
0m
1n
0T
1V
0X
#365000
0)
1(
0#
1"
1$
0C
1B
1>
0=
1<
1^
0\
1[
1S
0Q
0j
1h
0n
1T
0]
1_
#370000
1#
1!
1%
1?
1=
1D
1O
1\
1Y
1P
0h
0l
1Z
1]
#375000
0#
0%
0(
0$
0'
1&
0B
0A
1@
0?
0>
0=
0\
0[
0Y
1W
0U
0S
1h
1l
0i
1m
1n
0T
0V
1X
0Z
0]
#380000
1#
1%
1$
1'
0&
0!
1)
0"
1C
1A
0@
1?
1>
1=
0<
0D
0O
0^
1\
1[
1Y
0W
1U
1Q
0P
1j
0h
0l
1i
0m
1V
0X
1Z
1]
0_
#385000
0#
0%
0'
1"
1(
1B
0A
0?
0=
1<
1^
0\
0Y
0U
1S
0j
1h
1l
1m
0n
1T
0V
0Z
0]
1_
#390000
1#
1'
0(
0$
1&
1!
0B
1A
1@
0>
1=
1D
1O
1\
0[
1W
1U
0S
1P
0h
0i
0m
1n
0T
1V
1X
1]
#395000
1$
0&
0)
0C
0@
1>
1[
0W
0Q
1i
0X
#400000
1)
0#
1(
0!
0"
0*
1C
1B
0=
0<
0D
0E
0R
0O
0^
0\
1S
1Q
0P
1k
1j
1h
0n
1T
0]
0_
0M
0L
0K
1J
1I
1H
1G
1F
02
01
00
1/
1.
1-
1,
1+
#405000
0(
0$
1&
1%
0B
1@
1?
0>
0[
1Y
1W
0S
0l
0i
1n
0T
1X
1Z
#410000
1(
1$
0%
1#
1!
0'
1B
0A
0?
1>
1=
1D
1O
1\
1[
0Y
0U
1S
1P
0h
1l
1m
0n
1g
1e
0b
0a
0`
1T
0V
0Z
1]
0F
0G
0H
1K
1M
12
10
0-
0,
0+
#415000
0$
1%
0)
0C
1?
0>
0[
1Y
0Q
0l
1Z
#420000
1)
0!
0&
1"
1C
0@
1<
0D
0O
1^
0W
1Q
0P
0j
1i
0X
1_
#425000
0)
0"
0(
0#
0C
0B
0=
0<
0^
0\
0S
0Q
1j
1h
1n
0T
0]
0_
#430000
1"
1!
1&
0%
1'
1A
1@
0?
1<
1D
1O
1^
0Y
1W
1U
1P
0j
1l
0i
0m
0g
0e
0d
1V
1X
0Z
1_
0J
0K
0M
02
00
0/
#435000
0"
0&
1%
0'
1(
1B
0A
0@
1?
0<
0^
1Y
0W
0U
1S
1j
0l
1i
1m
0n
1T
0V
0X
1Z
0_
#440000
1"
0(
0!
1$
0B
1>
1<
0D
0O
1^
1[
0S
0P
0j
1n
0T
1_
#445000
0"
1(
0$
1)
1#
1C
1B
0>
1=
0<
0^
1\
0[
1S
1Q
1j
0h
0n
1T
1]
0_
#450000
0(
0)
0#
1!
1&
1'
1*
0C
0B
1A
1@
0=
1D
1E
1R
1O
0\
1W
1U
0S
0Q
1P
0k
1h
0i
0m
1n
1g
1f
1a
0T
1V
1X
0]
zM
zL
zK
zJ
zI
zH
zG
zF
z2
z1
z0
z/
z.
z-
z,
z+
#455000
1(
0&
1B
0@
0W
1S
1i
0n
1T
0X
#460000
1&
1#
0!
0'
1$
0%
0A
1@
0?
1>
1=
0D
0O
1\
1[
0Y
1W
0U
0P
0h
1l
0i
1m
0V
1X
0Z
1]
#465000
0&
0#
1'
1%
0(
1)
1C
0B
1A
0@
1?
0=
0\
1Y
0W
1U
0S
1Q
1h
0l
1i
0m
1n
0T
1V
0X
1Z
0]
#470000
1#
0%
0)
1!
1"
0C
0?
1=
1<
1D
1O
1^
1\
0Y
0Q
1P
0j
0h
1l
0Z
1]
1_
#475000
1%
1)
0"
0$
1C
1?
0>
0<
0^
0[
1Y
1Q
1j
0l
1Z
0_
#480000
0)
1$
0#
0!
0C
1>
0=
0D
0O
0\
1[
0Q
0P
1h
0]
#485000
1)
0$
1#
1&
0'
1(
1C
1B
0A
1@
0>
1=
1\
0[
1W
0U
1S
1Q
0h
0i
1m
0n
1T
0V
1X
1]
#490000
0&
0(
1!
0%
0B
0@
0?
1D
1O
0Y
0W
0S
1P
1l
1i
1n
0T
0X
0Z
#495000
1(
0)
1$
0#
1'
0C
1B
1A
1>
0=
0\
1[
1U
1S
0Q
1h
0m
0n
1T
1V
0]
#500000
0(
1)
1#
0!
0*
1C
0B
1=
0D
0E
0R
0O
1\
0S
1Q
0P
1k
0h
1n
0T
1]
1M
1L
0K
0J
1I
0H
1G
0F
12
11
00
0/
1.
0-
1,
0+
#505000
1(
0#
0$
1&
1%
1B
1@
1?
0>
0=
0\
0[
1Y
1W
1S
1h
0l
0i
0n
1T
1X
1Z
0]
#510000
0(
1#
1!
0B
1=
1D
1O
1\
0S
1P
0h
1n
1e
1d
0a
0T
1]
0G
1J
1K
10
1/
0,
#515000
1$
0&
0@
1>
1[
0W
1i
0X
#520000
0$
1&
0!
0)
0'
0C
0A
1@
0>
0D
0O
0[
1W
0U
0Q
0P
0i
1m
0V
1X
#525000
1$
0&
0%
1"
0@
0?
1>
1<
1^
1[
0Y
0W
0j
1l
1i
0X
0Z
1_
#530000
1%
1!
1)
1(
0#
1C
1B
1?
0=
1D
1O
0\
1Y
1S
1Q
1P
1h
0l
0n
0g
0f
0e
0d
0c
1b
1a
1`
1T
1Z
0]
1F
1G
1H
0I
0J
0K
0L
0M
02
01
00
0/
0.
1-
1,
1+
#535000
0)
0$
0"
1'
0C
1A
0>
0<
0^
0[
1U
0Q
1j
0m
1V
0_
#540000
1$
1"
0'
0%
0!
0(
1&
0B
0A
1@
0?
1>
1<
0D
0O
1^
1[
0Y
1W
0U
0S
0P
0j
1l
0i
1m
1n
0T
0V
1X
0Z
1_
#545000
0$
0"
1%
1(
0&
1)
1#
1C
1B
0@
1?
0>
1=
0<
0^
1\
0[
1Y
0W
1S
1Q
1j
0h
0l
1i
0n
1T
0X
1Z
1]
0_
#550000
0%
1&
0)
1!
1*
0C
1@
0?
1D
1E
1R
1O
0Y
1W
0Q
1P
0k
1l
0i
1g
1f
1c
0b
0`
1X
0Z
zM
zL
zK
zJ
zI
zH
zG
zF
z2
z1
z0
z/
z.
z-
z,
z+
#555000
1)
1$
0(
0#
1'
1C
0B
1A
1>
0=
0\
1[
1U
0S
1Q
1h
0m
1n
0T
1V
0]
#560000
0)
0$
1(
0!
1"
0C
1B
0>
1<
0D
0O
1^
0[
1S
0Q
0P
0j
0n
1T
1_
#565000
1)
1$
0"
0'
1%
1C
0A
1?
1>
0<
0^
1[
1Y
0U
1Q
1j
0l
1m
0V
1Z
0_
#570000
1"
0%
0(
1!
1#
0&
0B
0@
0?
1=
1<
1D
1O
1^
1\
0Y
0W
0S
1P
0j
0h
1l
1i
1n
0T
0X
0Z
1]
1_
#575000
1%
1&
1@
1?
1Y
1W
0l
0i
1X
1Z
#580000
0&
0"
1(
0!
0#
0)
1'
0C
1B
1A
0@
0=
0<
0D
0O
0^
0\
0W
1U
1S
0Q
0P
1j
1h
1i
0m
0n
1T
1V
0X
0]
0_
#585000
1&
1)
1C
1@
1W
1Q
0i
1X
#590000
0&
1!
0'
0$
0A
0@
0>
1D
1O
0[
0W
0U
1P
1i
1m
0V
0X
#595000
1&
1$
0%
1@
0?
1>
1[
0Y
1W
1l
0i
1X
0Z
#600000
0&
0$
0!
1'
0*
1A
0@
0>
0D
0E
0R
0O
0[
0W
1U
0P
1k
1i
0m
1V
0X
1M
1L
0K
0J
1I
0H
1G
0F
12
11
00
0/
1.
0-
1,
0+
#605000
1&
1$
0'
0)
0(
0C
0B
0A
1@
1>
1[
1W
0U
0S
0Q
0i
1m
1n
0T
0V
1X
#610000
0$
1'
1)
1!
1C
1A
0>
1D
1O
0[
1U
1Q
1P
0m
0g
0f
1d
0c
1b
0a
1V
0G
1H
0I
1J
0L
0M
02
01
1/
0.
1-
0,
#615000
0'
0)
0&
1(
0C
1B
0A
0@
0W
0U
1S
0Q
1i
1m
0n
1T
0V
0X
#620000
1'
1$
0!
1%
1#
1A
1?
1>
1=
0D
0O
1\
1[
1Y
1U
0P
0h
0l
0m
1V
1Z
1]
#625000
0$
0#
1)
1&
0(
1"
1C
0B
1@
0>
0=
1<
1^
0\
0[
1W
0S
1Q
0j
1h
0i
1n
0T
1X
0]
1_
#630000
1#
1(
0'
1!
1B
0A
1=
1D
1O
1\
0U
1S
1P
0h
1m
0n
1g
1e
1c
0b
1`
1T
0V
1]
1F
0H
1I
1K
1M
12
10
1.
0-
1+
#635000
0(
0)
0"
0%
0C
0B
0?
0<
0^
0Y
0S
0Q
1j
1l
1n
0T
0Z
0_
#640000
1"
0#
1'
0!
0&
1A
0@
0=
1<
0D
0O
1^
0\
0W
1U
0P
0j
1h
1i
0m
1V
0X
0]
1_
#645000
0"
1#
0'
1&
1(
1)
1%
1$
1C
1B
0A
1@
1?
1>
1=
0<
0^
1\
1[
1Y
1W
0U
1S
1Q
1j
0h
0l
0i
1m
0n
1T
0V
1X
1Z
1]
0_
#650000
0#
1'
0&
0%
1!
1*
1A
0@
0?
0=
1D
1E
1R
1O
0\
0Y
0W
1U
1P
0k
1h
1l
1i
0m
1f
0e
1b
1a
0`
1V
0X
0Z
0]
zM
zL
zK
zJ
zI
zH
zG
zF
z2
z1
z0
z/
z.
z-
z,
z+
#655000
1&
1%
0)
0C
1@
1?
1Y
1W
0Q
0l
0i
1X
1Z
#660000
1)
1#
0!
0$
1C
0>
1=
0D
0O
1\
0[
1Q
0P
0h
1]
#665000
0)
0#
1"
0C
0=
1<
1^
0\
0Q
0j
1h
0]
1_
#670000
1)
0"
1!
1$
0&
0%
0(
1C
0B
0@
0?
1>
0<
1D
1O
0^
1[
0Y
0W
0S
1Q
1P
1j
1l
1i
1n
0T
0X
0Z
0_
#675000
0$
1(
1#
1B
0>
1=
1\
0[
1S
0h
0n
1T
1]
#680000
1$
0(
0#
0)
1"
0!
0C
0B
1>
0=
1<
0D
0O
1^
0\
1[
0S
0Q
0P
0j
1h
1n
0T
0]
1_
#685000
1#
1)
1%
0'
1C
0A
1?
1=
1\
1Y
0U
1Q
0h
0l
1m
0V
1Z
1]
#690000
1'
1(
0"
1!
1B
1A
0<
1D
1O
0^
1U
1S
1P
1j
0m
0n
1T
1V
0_
#695000
0'
0(
1"
1&
0B
0A
1@
1<
1^
1W
0U
0S
0j
0i
1m
1n
0T
0V
1X
1_
#700000
1(
0!
0#
0)
0%
0$
0*
0C
1B
0?
0>
0=
0D
0E
0R
0O
0\
0[
0Y
1S
0Q
0P
1k
1h
1l
0n
1T
0Z
0]
1M
1L
0K
1J
1I
1H
1G
0F
12
11
00
1/
1.
1-
1,
0+
#705000
0(
0"
0&
0B
0@
0<
0^
0W
0S
1j
1i
1n
0T
0X
0_
#710000
1(
1"
1&
1!
1#
1%
1$
1'
1B
1A
1@
1?
1>
1=
1<
1D
1O
1^
1\
1[
1Y
1W
1U
1S
1P
0j
0h
0l
0i
0m
0n
0g
0f
0d
0c
0b
0a
1T
1V
1X
1Z
1]
1_
0G
0H
0I
0J
0L
0M
02
01
0/
0.
0-
0,
#715000
0(
0"
0$
0'
1)
1C
0B
0A
0>
0<
0^
0[
0U
0S
1Q
1j
1m
1n
0T
0V
0_
#720000
0)
0!
0%
0C
0?
0D
0O
0Y
0Q
0P
1l
0Z
#725000
1(
1"
1B
1<
1^
1S
0j
0n
1T
1_
#730000
0(
0"
1!
1%
1$
1'
0#
0B
1A
1?
1>
0=
0<
1D
1O
0^
0\
1[
1Y
1U
0S
1P
1j
1h
0l
0m
1n
1f
1d
1a
1`
0T
1V
1Z
0]
0_
1F
1G
1J
1L
11
1/
1,
1+
#735000
0%
0$
1)
0&
1C
0@
0?
0>
0[
0Y
0W
1Q
1l
1i
0X
0Z
#740000
1(
1"
0!
0'
1B
0A
1<
0D
0O
1^
0U
1S
0P
0j
1m
0n
1T
0V
1_
#745000
0"
1'
1$
1#
1A
1>
1=
0<
0^
1\
1[
1U
1j
0h
0m
1V
1]
0_
#750000
1!
1%
0)
1&
1*
1D
0C
1@
1?
1E
1R
1Y
1W
0Q
1O
1P
0k
0l
0i
1g
1e
0d
1b
0`
1X
1Z
zM
zL
zK
zJ
zI
zH
zG
zF
z2
z1
z0
z/
z.
z-
z,
z+
#755000
1)
1"
1C
1<
1^
1Q
0j
1_
#760000
0"
0!
0%
0&
0$
0@
0?
0>
0<
0D
0O
0^
0[
0Y
0W
0P
1j
1l
1i
0X
0Z
0_
#765000
1%
0'
0#
0(
0B
0A
1?
0=
0\
1Y
0U
0S
1h
0l
1m
1n
0T
0V
1Z
0]
#770000
1'
1(
1"
1!
1&
1$
0)
0C
1B
1A
1@
1>
1<
1D
1O
1^
1[
1W
1U
1S
0Q
1P
0j
0i
0m
0n
1T
1V
1X
1_
#775000
0'
0(
0"
0B
0A
0<
0^
0U
0S
1j
1m
1n
0T
0V
0_
#780000
1(
1"
0!
1)
0%
1#
1C
1B
0?
1=
1<
0D
0O
1^
1\
0Y
1S
1Q
0P
0j
0h
1l
0n
1T
0Z
1]
1_
#785000
0"
0)
0#
1'
0&
0$
0C
1A
0@
0>
0=
0<
0^
0\
0[
0W
1U
0Q
1j
1h
1i
0m
1V
0X
0]
0_
#790000
1"
1#
0'
1&
0(
1!
0B
0A
1@
1=
1<
1D
1O
1^
1\
1W
0U
0S
1P
0j
0h
0i
1m
1n
0T
0V
1X
1]
1_
#795000
0"
1$
1>
0<
0^
1[
1j
0_
#800000
1"
0$
0#
0&
0!
1)
0*
1C
0@
0>
0=
1<
0D
0E
0R
0O
1^
0\
0[
0W
1Q
0P
1k
0j
1h
1i
0X
0]
1_
1M
1L
1K
0J
0I
1H
1G
0F
12
11
10
0/
0.
1-
1,
0+
#805000
0"
1$
1#
1%
1?
1>
1=
0<
0^
1\
1[
1Y
1j
0h
0l
1Z
1]
0_
#810000
1"
0$
0#
1!
0)
1'
0C
1A
0>
0=
1<
1D
1O
1^
0\
0[
1U
0Q
1P
0j
1h
0m
0f
0e
1c
1V
0]
1_
1I
0K
0L
01
00
1.
#815000
1$
1)
0'
0%
1C
0A
0?
1>
1[
0Y
0U
1Q
1l
1m
0V
0Z
#820000
0$
1'
0"
0!
1&
1A
1@
0>
0<
0D
0O
0^
0[
1W
1U
0P
1j
0i
0m
1V
1X
0_
#825000
1"
0&
0)
1%
1#
0C
0@
1?
1=
1<
1^
1\
1Y
0W
0Q
0j
0h
0l
1i
0X
1Z
1]
1_
#830000
0"
1)
0#
1!
1C
0=
0<
1D
1O
0^
0\
1Q
1P
1j
1h
0g
1e
0b
1`
0]
0_
1F
0H
1K
0M
02
10
0-
1+
#835000
1"
0)
1&
0C
1@
1<
1^
1W
0Q
0j
0i
1X
1_
#840000
0"
1)
0&
0!
1$
1(
1C
1B
0@
1>
0<
0D
0O
0^
1[
0W
1S
1Q
0P
1j
1i
0n
1T
0X
0_
#845000
1"
1#
0%
0'
0A
0?
1=
1<
1^
1\
0Y
0U
0j
0h
1l
1m
0V
0Z
1]
1_
