大一下/数字电路与逻辑系统/实验代码和实验报告/Code/QuartusPrime/coded_lock/simulation/qsim/CodeLock.msim.vcd
$comment
	File created using the following command:
		vcd file CodeLock.msim.vcd -direction
$end
$date
	Sun Jun  8 10:50:38 2025
$end
$version
	Questa Intel Starter FPGA Edition Version 2021.2
$end
$timescale
	1ps
$end

$scope module codelock_vhd_vec_tst $end
$var wire 1 ! clk $end
$var wire 1 " data_in $end
$var wire 1 # reset $end
$var wire 1 $ set_mode $end
$var wire 1 % unlocked $end

$scope module i1 $end
$var wire 1 & gnd $end
$var wire 1 ' vcc $end
$var wire 1 ( unknown $end
$var wire 1 ) devoe $end
$var wire 1 * devclrn $end
$var wire 1 + devpor $end
$var wire 1 , ww_devoe $end
$var wire 1 - ww_devclrn $end
$var wire 1 . ww_devpor $end
$var wire 1 / ww_clk $end
$var wire 1 0 ww_reset $end
$var wire 1 1 ww_data_in $end
$var wire 1 2 ww_set_mode $end
$var wire 1 3 ww_unlocked $end
$var wire 1 4 \~QUARTUS_CREATED_GND~I_combout\ $end
$var wire 1 5 \clk~input_o\ $end
$var wire 1 6 \clk~inputCLKENA0_outclk\ $end
$var wire 1 7 \set_mode~input_o\ $end
$var wire 1 8 \data_in~input_o\ $end
$var wire 1 9 \stored_password[2]~4_combout\ $end
$var wire 1 : \reset~input_o\ $end
$var wire 1 ; \Selector0~1_combout\ $end
$var wire 1 < \stored_password[1]~1_combout\ $end
$var wire 1 = \current_state.S_SET_P2~q\ $end
$var wire 1 > \Selector0~2_combout\ $end
$var wire 1 ? \Selector0~3_combout\ $end
$var wire 1 @ \current_state.S_IDLE~q\ $end
$var wire 1 A \next_state.S_SET_INIT~0_combout\ $end
$var wire 1 B \current_state.S_SET_INIT~q\ $end
$var wire 1 C \stored_password[2]~3_combout\ $end
$var wire 1 D \current_state.S_SET_P1~q\ $end
$var wire 1 E \stored_password[1]~2_combout\ $end
$var wire 1 F \next_state.S_P1_OK~0_combout\ $end
$var wire 1 G \current_state.S_P1_OK~q\ $end
$var wire 1 H \next_state.S_P2_OK~0_combout\ $end
$var wire 1 I \current_state.S_P2_OK~q\ $end
$var wire 1 J \stored_password[0]~0_combout\ $end
$var wire 1 K \Selector0~0_combout\ $end
$var wire 1 L \current_state.S_UNLOCKED~q\ $end
$var wire 1 M stored_password [2] $end
$var wire 1 N stored_password [1] $end
$var wire 1 O stored_password [0] $end
$var wire 1 P \ALT_INV_Selector0~0_combout\ $end
$var wire 1 Q \ALT_INV_data_in~input_o\ $end
$var wire 1 R \ALT_INV_next_state.S_P2_OK~0_combout\ $end
$var wire 1 S ALT_INV_stored_password [2] $end
$var wire 1 T ALT_INV_stored_password [1] $end
$var wire 1 U ALT_INV_stored_password [0] $end
$var wire 1 V \ALT_INV_current_state.S_P2_OK~q\ $end
$var wire 1 W \ALT_INV_current_state.S_SET_P2~q\ $end
$var wire 1 X \ALT_INV_reset~input_o\ $end
$var wire 1 Y \ALT_INV_current_state.S_IDLE~q\ $end
$var wire 1 Z \ALT_INV_set_mode~input_o\ $end
$var wire 1 [ \ALT_INV_current_state.S_P1_OK~q\ $end
$var wire 1 \ \ALT_INV_current_state.S_SET_INIT~q\ $end
$var wire 1 ] \ALT_INV_Selector0~2_combout\ $end
$var wire 1 ^ \ALT_INV_current_state.S_SET_P1~q\ $end
$var wire 1 _ \ALT_INV_current_state.S_UNLOCKED~q\ $end
$var wire 1 ` \ALT_INV_Selector0~1_combout\ $end
$upscope $end
$upscope $end
$enddefinitions $end
#0
$dumpvars
0!
0"
0#
0$
0%
0&
1'
x(
1)
1*
1+
1,
1-
1.
0/
00
01
02
03
x4
05
06
07
08
09
0:
0;
0<
0=
0>
0?
0@
0A
0B
0C
0D
0E
0F
0G
0H
0I
0J
0K
0L
1P
1Q
1R
1V
1W
1X
1Y
1Z
1[
1\
1]
1^
1_
1`
0M
0N
0O
1S
1T
1U
$end
#5000
1!
1/
15
16
#10000
0!
1"
0/
11
18
05
06
0Q
1;
1F
0`
1?
#15000
1!
1/
15
16
1@
1G
0Y
0[
0;
0F
1`
0?
#20000
0!
0"
0/
01
08
05
06
1Q
1H
0R
1?
#25000
1!
1/
15
16
0G
1I
1[
0V
0H
1R
0?
#30000
0!
1"
0/
11
18
05
06
0Q
1K
0P
1?
#35000
1!
1/
15
16
0I
1L
1V
0_
13
1%
#40000
0!
0"
0/
01
08
05
06
1Q
#45000
1!
1/
15
16
#50000
0!
0/
05
06
#55000
1!
1/
15
16
#60000
0!
0/
05
06
#65000
1!
1/
15
16
#70000
0!
0/
05
06
#75000
1!
1/
15
16
#80000
0!
1"
0/
11
18
05
06
0Q
#85000
1!
1/
15
16
#90000
0!
0"
0/
01
08
05
06
1Q
#95000
1!
1/
15
16
#100000
0!
0/
05
06
#105000
1!
1/
15
16
#110000
0!
1#
0/
10
1:
05
06
0X
0@
0L
1Y
1_
0K
1P
03
0?
0%
#115000
1!
1/
15
16
#120000
0!
0#
0/
00
0:
05
06
1X
#125000
1!
1/
15
16
#130000
0!
1"
0/
11
18
05
06
0Q
1;
1F
0`
1?
#135000
1!
1/
15
16
1@
1G
0Y
0[
0;
0F
1`
0?
#140000
0!
0"
0/
01
08
05
06
1Q
1H
0R
1?
#145000
1!
1/
15
16
0G
1I
1[
0V
0H
1R
0?
#150000
0!
1"
0/
11
18
05
06
0Q
1K
0P
1?
#155000
1!
1/
15
16
0I
1L
1V
0_
13
1%
#160000
0!
0"
0/
01
08
05
06
1Q
#165000
1!
1/
15
16
#170000
0!
0/
05
06
#175000
1!
1/
15
16
#180000
0!
0/
05
06
#185000
1!
1/
15
16
#190000
0!
1#
0/
10
1:
05
06
0X
0@
0L
1Y
1_
0K
1P
03
0?
0%
#195000
1!
1/
15
16
#200000
0!
0#
0/
00
0:
05
06
1X
#205000
1!
1/
15
16
#210000
0!
0/
05
06
#215000
1!
1/
15
16
#220000
0!
1"
1$
0/
11
12
17
18
05
06
0Z
0Q
1;
1A
0`
1?
#225000
1!
1/
15
16
1@
1B
0Y
0\
1>
1C
0;
0A
0]
1`
#230000
0!
0/
05
06
#235000
1!
1/
15
16
0B
1D
1\
0^
1<
1E
0C
#240000
0!
0/
05
06
#245000
1!
1/
15
16
1=
0D
1N
0W
1^
0T
0<
#250000
0!
0"
0$
0/
01
02
07
08
05
06
1Z
1Q
0>
1]
0?
#255000
1!
1/
15
16
0=
0@
1W
1Y
#260000
0!
0/
05
06
#265000
1!
1/
15
16
#270000
0!
1"
0/
11
18
05
06
0Q
1;
1F
0`
1?
#275000
1!
1/
15
16
1@
1G
0Y
0[
1H
0;
0F
0R
1`
#280000
0!
0"
0/
01
08
05
06
1Q
0H
1R
0?
#285000
1!
1/
15
16
0@
0G
1Y
1[
#290000
0!
1"
0/
11
18
05
06
0Q
1;
1F
0`
1?
#295000
1!
1/
15
16
1@
1G
0Y
0[
1H
0;
0F
0R
1`
#300000
0!
0"
0/
01
08
05
06
1Q
0H
1R
0?
#305000
1!
1/
15
16
0@
0G
1Y
1[
#310000
0!
1"
0/
11
18
05
06
0Q
1;
1F
0`
1?
#315000
1!
1/
15
16
1@
1G
0Y
0[
1H
0;
0F
0R
1`
#320000
0!
0/
05
06
#325000
1!
1/
15
16
0G
1I
1[
0V
1K
0H
0P
1R
#330000
0!
0/
05
06
#335000
1!
1/
15
16
0I
1L
1V
0_
13
1%
#340000
0!
0"
0/
01
08
05
06
1Q
#345000
1!
1/
15
16
#350000
0!
0/
05
06
#355000
1!
1/
15
16
#360000
0!
0/
05
06
#365000
1!
1/
15
16
#370000
0!
0/
05
06
#375000
1!
1/
15
16
#380000
0!
0/
05
06
#385000
1!
1/
15
16
#390000
0!
0/
05
06
#395000
1!
1/
15
16
#400000
0!
0/
05
06
#405000
1!
1/
15
16
#410000
0!
0/
05
06
#415000
1!
1/
15
16
#420000
0!
0/
05
06
#425000
1!
1/
15
16
#430000
0!
0/
05
06
#435000
1!
1/
15
16
#440000
0!
0/
05
06
#445000
1!
1/
15
16
#450000
0!
0/
05
06
#455000
1!
1/
15
16
#460000
0!
0/
05
06
#465000
1!
1/
15
16
#470000
0!
0/
05
06
#475000
1!
1/
15
16
#480000
0!
0/
05
06
#485000
1!
1/
15
16
#490000
0!
0/
05
06
#495000
1!
1/
15
16
#500000
0!
0/
05
06
#505000
1!
1/
15
16
#510000
0!
0/
05
06
#515000
1!
1/
15
16
#520000
0!
0/
05
06
#525000
1!
1/
15
16
#530000
0!
0/
05
06
#535000
1!
1/
15
16
#540000
0!
0/
05
06
#545000
1!
1/
15
16
#550000
0!
0/
05
06
#555000
1!
1/
15
16
#560000
0!
0/
05
06
#565000
1!
1/
15
16
#570000
0!
0/
05
06
#575000
1!
1/
15
16
#580000
0!
0/
05
06
#585000
1!
1/
15
16
#590000
0!
0/
05
06
#595000
1!
1/
15
16
#600000
0!
0/
05
06
#605000
1!
1/
15
16
#610000
0!
0/
05
06
#615000
1!
1/
15
16
#620000
0!
0/
05
06
#625000
1!
1/
15
16
#630000
0!
0/
05
06
#635000
1!
1/
15
16
#640000
0!
0/
05
06
#645000
1!
1/
15
16
#650000
0!
0/
05
06
#655000
1!
1/
15
16
#660000
0!
0/
05
06
#665000
1!
1/
15
16
#670000
0!
0/
05
06
#675000
1!
1/
15
16
#680000
0!
0/
05
06
#685000
1!
1/
15
16
#690000
0!
0/
05
06
#695000
1!
1/
15
16
#700000
0!
0/
05
06
#705000
1!
1/
15
16
#710000
0!
0/
05
06
#715000
1!
1/
15
16
#720000
0!
0/
05
06
#725000
1!
1/
15
16
#730000
0!
0/
05
06
#735000
1!
1/
15
16
#740000
0!
0/
05
06
#745000
1!
1/
15
16
#750000
0!
0/
05
06
#755000
1!
1/
15
16
#760000
0!
0/
05
06
#765000
1!
1/
15
16
#770000
0!
0/
05
06
#775000
1!
1/
15
16
#780000
0!
0/
05
06
#785000
1!
1/
15
16
#790000
0!
0/
05
06
#795000
1!
1/
15
16
#800000
0!
0/
05
06
#805000
1!
1/
15
16
#810000
0!
0/
05
06
#815000
1!
1/
15
16
#820000
0!
0/
05
06
#825000
1!
1/
15
16
#830000
0!
0/
05
06
#835000
1!
1/
15
16
#840000
0!
0/
05
06
#845000
1!
1/
15
16
#850000
0!
0/
05
06
#855000
1!
1/
15
16
#860000
0!
0/
05
06
#865000
1!
1/
15
16
#870000
0!
0/
05
06
#875000
1!
1/
15
16
#880000
0!
0/
05
06
#885000
1!
1/
15
16
#890000
0!
0/
05
06
#895000
1!
1/
15
16
#900000
0!
0/
05
06
#905000
1!
1/
15
16
#910000
0!
0/
05
06
#915000
1!
1/
15
16
#920000
0!
0/
05
06
#925000
1!
1/
15
16
#930000
0!
0/
05
06
#935000
1!
1/
15
16
#940000
0!
0/
05
06
#945000
1!
1/
15
16
#950000
0!
0/
05
06
#955000
1!
1/
15
16
#960000
0!
0/
05
06
#965000
1!
1/
15
16
#970000
0!
0/
05
06
#975000
1!
1/
15
16
#980000
0!
0/
05
06
#985000
1!
1/
15
16
#990000
0!
0/
05
06
#995000
1!
1/
15
16
