大一下/数字电路与逻辑系统/实验代码和实验报告/Code/QuartusPrime/experiment1.1_Gray8421/simulation/qsim/Gray8421.msim.vcd
$comment
	File created using the following command:
		vcd file Gray8421.msim.vcd -direction
$end
$date
	Fri Jun 13 09:05:31 2025
$end
$version
	Questa Intel Starter FPGA Edition Version 2021.2
$end
$timescale
	1ps
$end

$scope module gray8421_vhd_vec_tst $end
$var wire 1 ! f [3] $end
$var wire 1 " f [2] $end
$var wire 1 # f [1] $end
$var wire 1 $ f [0] $end
$var wire 1 % z [3] $end
$var wire 1 & z [2] $end
$var wire 1 ' z [1] $end
$var wire 1 ( z [0] $end

$scope module i1 $end
$var wire 1 ) gnd $end
$var wire 1 * vcc $end
$var wire 1 + unknown $end
$var wire 1 , devoe $end
$var wire 1 - devclrn $end
$var wire 1 . devpor $end
$var wire 1 / ww_devoe $end
$var wire 1 0 ww_devclrn $end
$var wire 1 1 ww_devpor $end
$var wire 1 2 ww_z [3] $end
$var wire 1 3 ww_z [2] $end
$var wire 1 4 ww_z [1] $end
$var wire 1 5 ww_z [0] $end
$var wire 1 6 ww_f [3] $end
$var wire 1 7 ww_f [2] $end
$var wire 1 8 ww_f [1] $end
$var wire 1 9 ww_f [0] $end
$var wire 1 : \~QUARTUS_CREATED_GND~I_combout\ $end
$var wire 1 ; \z[0]~input_o\ $end
$var wire 1 < \z[1]~input_o\ $end
$var wire 1 = \temp~0_combout\ $end
$var wire 1 > \z[2]~input_o\ $end
$var wire 1 ? \temp~1_combout\ $end
$var wire 1 @ \z[3]~input_o\ $end
$var wire 1 A \temp~2_combout\ $end
$var wire 1 B \ALT_INV_z[0]~input_o\ $end
$var wire 1 C \ALT_INV_z[1]~input_o\ $end
$var wire 1 D \ALT_INV_z[2]~input_o\ $end
$var wire 1 E \ALT_INV_z[3]~input_o\ $end
$upscope $end
$upscope $end
$enddefinitions $end
#0
$dumpvars
0)
1*
x+
1,
1-
1.
1/
10
11
x:
0;
0<
0=
0>
0?
0@
0A
1B
1C
1D
1E
0%
0&
0'
0(
02
03
04
05
06
07
08
09
0!
0"
0#
0$
$end
#10000
1(
15
1;
0B
1=
19
1$
#20000
0(
1'
05
14
1<
0;
0C
1B
1?
18
1#
#30000
1(
15
1;
0B
0=
09
0$
#40000
0(
0'
1&
05
04
13
1>
0<
0;
0D
1C
1B
1A
17
1"
#50000
1(
15
1;
0B
1=
19
1$
#60000
0(
1'
05
14
1<
0;
0C
1B
0?
08
0#
#70000
1(
15
1;
0B
0=
09
0$
#80000
0(
0'
0&
1%
05
04
03
12
1@
0>
0<
0;
0E
1D
1C
1B
16
1!
#90000
1(
15
1;
0B
1=
19
1$
#100000
0(
1'
05
14
1<
0;
0C
1B
1?
18
1#
#110000
1(
15
1;
0B
0=
09
0$
#120000
0(
0'
1&
05
04
13
1>
0<
0;
0D
1C
1B
0A
07
0"
#130000
1(
15
1;
0B
1=
19
1$
#140000
0(
1'
05
14
1<
0;
0C
1B
0?
08
0#
#150000
1(
15
1;
0B
0=
09
0$
#160000
0(
0'
0&
0%
05
04
03
02
0@
0>
0<
0;
1E
1D
1C
1B
06
0!
#170000
1(
15
1;
0B
1=
19
1$
#180000
0(
1'
05
14
1<
0;
0C
1B
1?
18
1#
#190000
1(
15
1;
0B
0=
09
0$
#200000
0(
0'
1&
05
04
13
1>
0<
0;
0D
1C
1B
1A
17
1"
#210000
1(
15
1;
0B
1=
19
1$
#220000
0(
1'
05
14
1<
0;
0C
1B
0?
08
0#
#230000
1(
15
1;
0B
0=
09
0$
#240000
0(
0'
0&
1%
05
04
03
12
1@
0>
0<
0;
0E
1D
1C
1B
16
1!
#250000
1(
15
1;
0B
1=
19
1$
#260000
0(
1'
05
14
1<
0;
0C
1B
1?
18
1#
#270000
1(
15
1;
0B
0=
09
0$
#280000
0(
0'
1&
05
04
13
1>
0<
0;
0D
1C
1B
0A
07
0"
#290000
1(
15
1;
0B
1=
19
1$
#300000
0(
1'
05
14
1<
0;
0C
1B
0?
08
0#
#310000
1(
15
1;
0B
0=
09
0$
#320000
0(
0'
0&
0%
05
04
03
02
0@
0>
0<
0;
1E
1D
1C
1B
06
0!
#330000
1(
15
1;
0B
1=
19
1$
#340000
0(
1'
05
14
1<
0;
0C
1B
1?
18
1#
#350000
1(
15
1;
0B
0=
09
0$
#360000
0(
0'
1&
05
04
13
1>
0<
0;
0D
1C
1B
1A
17
1"
#370000
1(
15
1;
0B
1=
19
1$
#380000
0(
1'
05
14
1<
0;
0C
1B
0?
08
0#
#390000
1(
15
1;
0B
0=
09
0$
#400000
0(
0'
0&
1%
05
04
03
12
1@
0>
0<
0;
0E
1D
1C
1B
16
1!
#410000
1(
15
1;
0B
1=
19
1$
#420000
0(
1'
05
14
1<
0;
0C
1B
1?
18
1#
#430000
1(
15
1;
0B
0=
09
0$
#440000
0(
0'
1&
05
04
13
1>
0<
0;
0D
1C
1B
0A
07
0"
#450000
1(
15
1;
0B
1=
19
1$
#460000
0(
1'
05
14
1<
0;
0C
1B
0?
08
0#
#470000
1(
15
1;
0B
0=
09
0$
#480000
0(
0'
0&
0%
05
04
03
02
0@
0>
0<
0;
1E
1D
1C
1B
06
0!
#490000
1(
15
1;
0B
1=
19
1$
#500000
0(
1'
05
14
1<
0;
0C
1B
1?
18
1#
#510000
1(
15
1;
0B
0=
09
0$
#520000
0(
0'
1&
05
04
13
1>
0<
0;
0D
1C
1B
1A
17
1"
#530000
1(
15
1;
0B
1=
19
1$
#540000
0(
1'
05
14
1<
0;
0C
1B
0?
08
0#
#550000
1(
15
1;
0B
0=
09
0$
#560000
0(
0'
0&
1%
05
04
03
12
1@
0>
0<
0;
0E
1D
1C
1B
16
1!
#570000
1(
15
1;
0B
1=
19
1$
#580000
0(
1'
05
14
1<
0;
0C
1B
1?
18
1#
#590000
1(
15
1;
0B
0=
09
0$
#600000
0(
0'
1&
05
04
13
1>
0<
0;
0D
1C
1B
0A
07
0"
#610000
1(
15
1;
0B
1=
19
1$
#620000
0(
1'
05
14
1<
0;
0C
1B
0?
08
0#
#630000
1(
15
1;
0B
0=
09
0$
#640000
0(
0'
0&
0%
05
04
03
02
0@
0>
0<
0;
1E
1D
1C
1B
06
0!
#650000
1(
15
1;
0B
1=
19
1$
#660000
0(
1'
05
14
1<
0;
0C
1B
1?
18
1#
#670000
1(
15
1;
0B
0=
09
0$
#680000
0(
0'
1&
05
04
13
1>
0<
0;
0D
1C
1B
1A
17
1"
#690000
1(
15
1;
0B
1=
19
1$
#700000
0(
1'
05
14
1<
0;
0C
1B
0?
08
0#
#710000
1(
15
1;
0B
0=
09
0$
#720000
0(
0'
0&
1%
05
04
03
12
1@
0>
0<
0;
0E
1D
1C
1B
16
1!
#730000
1(
15
1;
0B
1=
19
1$
#740000
0(
1'
05
14
1<
0;
0C
1B
1?
18
1#
#750000
1(
15
1;
0B
0=
09
0$
#760000
0(
0'
1&
05
04
13
1>
0<
0;
0D
1C
1B
0A
07
0"
#770000
1(
15
1;
0B
1=
19
1$
#780000
0(
1'
05
14
1<
0;
0C
1B
0?
08
0#
#790000
1(
15
1;
0B
0=
09
0$
#800000
0(
0'
0&
0%
05
04
03
02
0@
0>
0<
0;
1E
1D
1C
1B
06
0!
#810000
1(
15
1;
0B
1=
19
1$
#820000
0(
1'
05
14
1<
0;
0C
1B
1?
18
1#
#830000
1(
15
1;
0B
0=
09
0$
#840000
0(
0'
1&
05
04
13
1>
0<
0;
0D
1C
1B
1A
17
1"
#850000
1(
15
1;
0B
1=
19
1$
#860000
0(
1'
05
14
1<
0;
0C
1B
0?
08
0#
#870000
1(
15
1;
0B
0=
09
0$
#880000
0(
0'
0&
1%
05
04
03
12
1@
0>
0<
0;
0E
1D
1C
1B
16
1!
#890000
1(
15
1;
0B
1=
19
1$
#900000
0(
1'
05
14
1<
0;
0C
1B
1?
18
1#
#910000
1(
15
1;
0B
0=
09
0$
#920000
0(
0'
1&
05
04
13
1>
0<
0;
0D
1C
1B
0A
07
0"
#930000
1(
15
1;
0B
1=
19
1$
#940000
0(
1'
05
14
1<
0;
0C
1B
0?
08
0#
#950000
1(
15
1;
0B
0=
09
0$
#960000
0(
0'
0&
0%
05
04
03
02
0@
0>
0<
0;
1E
1D
1C
1B
06
0!
#970000
1(
15
1;
0B
1=
19
1$
#980000
0(
1'
05
14
1<
0;
0C
1B
1?
18
1#
#990000
1(
15
1;
0B
0=
09
0$
